Design Route Status
                                               :      # nets :
   ------------------------------------------- : ----------- :
   # of logical nets.......................... :       36438 :
       # of nets not needing routing.......... :       12407 :
           # of internally routed nets........ :       12407 :
       # of routable nets..................... :       24031 :
           # of fully routed nets............. :       24031 :
       # of nets with routing errors.......... :           0 :
   ------------------------------------------- : ----------- :

