# compile verilog/system verilog design source files
verilog xil_defaultlib  "../../../huffman.ip_user_files/bd/Huffman_bd/ip/Huffman_bd_processing_system7_0_0/sim/Huffman_bd_processing_system7_0_0.v" --include "../../../huffman.srcs/sources_1/bd/Huffman_bd/ipshared/7dd0/hdl" --include "../../../huffman.srcs/sources_1/bd/Huffman_bd/ipshared/7e3a/hdl"
verilog xil_defaultlib  "../../../huffman.ip_user_files/bd/Huffman_bd/ipshared/ff46/hdl/huffman_codec_ip_v1_0_S00_AXI.v" --include "../../../huffman.srcs/sources_1/bd/Huffman_bd/ipshared/7dd0/hdl" --include "../../../huffman.srcs/sources_1/bd/Huffman_bd/ipshared/7e3a/hdl"
verilog xil_defaultlib  "../../../huffman.ip_user_files/bd/Huffman_bd/ipshared/ff46/hdl/huffman_codec_ip_v1_0.v" --include "../../../huffman.srcs/sources_1/bd/Huffman_bd/ipshared/7dd0/hdl" --include "../../../huffman.srcs/sources_1/bd/Huffman_bd/ipshared/7e3a/hdl"
verilog xil_defaultlib  "../../../huffman.ip_user_files/bd/Huffman_bd/ip/Huffman_bd_huffman_codec_ip_0_0/sim/Huffman_bd_huffman_codec_ip_0_0.v" --include "../../../huffman.srcs/sources_1/bd/Huffman_bd/ipshared/7dd0/hdl" --include "../../../huffman.srcs/sources_1/bd/Huffman_bd/ipshared/7e3a/hdl"
verilog xil_defaultlib  "../../../huffman.ip_user_files/bd/Huffman_bd/hdl/Huffman_bd.v" --include "../../../huffman.srcs/sources_1/bd/Huffman_bd/ipshared/7dd0/hdl" --include "../../../huffman.srcs/sources_1/bd/Huffman_bd/ipshared/7e3a/hdl"
verilog xil_defaultlib  "../../../huffman.ip_user_files/bd/Huffman_bd/ip/Huffman_bd_auto_pc_0/sim/Huffman_bd_auto_pc_0.v" --include "../../../huffman.srcs/sources_1/bd/Huffman_bd/ipshared/7dd0/hdl" --include "../../../huffman.srcs/sources_1/bd/Huffman_bd/ipshared/7e3a/hdl"
verilog xil_defaultlib  "../../../huffman.srcs/sources_1/bd/Huffman_bd/hdl/Huffman_bd_wrapper.v" --include "../../../huffman.srcs/sources_1/bd/Huffman_bd/ipshared/7dd0/hdl" --include "../../../huffman.srcs/sources_1/bd/Huffman_bd/ipshared/7e3a/hdl"
verilog xil_defaultlib  "../../../huffman.srcs/sources_1/new/huffman_decoder.v" --include "../../../huffman.srcs/sources_1/bd/Huffman_bd/ipshared/7dd0/hdl" --include "../../../huffman.srcs/sources_1/bd/Huffman_bd/ipshared/7e3a/hdl"
verilog xil_defaultlib  "../../../huffman.srcs/sources_1/new/huffman_coder.v" --include "../../../huffman.srcs/sources_1/bd/Huffman_bd/ipshared/7dd0/hdl" --include "../../../huffman.srcs/sources_1/bd/Huffman_bd/ipshared/7e3a/hdl"
verilog xil_defaultlib  "../../../huffman.srcs/sources_1/new/huffman.v" --include "../../../huffman.srcs/sources_1/bd/Huffman_bd/ipshared/7dd0/hdl" --include "../../../huffman.srcs/sources_1/bd/Huffman_bd/ipshared/7e3a/hdl"
verilog xil_defaultlib  "../../../huffman.srcs/sources_1/new/huffman_codec.v" --include "../../../huffman.srcs/sources_1/bd/Huffman_bd/ipshared/7dd0/hdl" --include "../../../huffman.srcs/sources_1/bd/Huffman_bd/ipshared/7e3a/hdl"
verilog xil_defaultlib  "../../../huffman.srcs/sim_1/new/huffman_codec_tb.v" --include "../../../huffman.srcs/sources_1/bd/Huffman_bd/ipshared/7dd0/hdl" --include "../../../huffman.srcs/sources_1/bd/Huffman_bd/ipshared/7e3a/hdl"
verilog xil_defaultlib  "../../../huffman.srcs/sim_1/new/huffman_coder_tb.v" --include "../../../huffman.srcs/sources_1/bd/Huffman_bd/ipshared/7dd0/hdl" --include "../../../huffman.srcs/sources_1/bd/Huffman_bd/ipshared/7e3a/hdl"
verilog xil_defaultlib  "../../../huffman.srcs/sim_1/new/Huff_testb.v" --include "../../../huffman.srcs/sources_1/bd/Huffman_bd/ipshared/7dd0/hdl" --include "../../../huffman.srcs/sources_1/bd/Huffman_bd/ipshared/7e3a/hdl"
verilog xil_defaultlib  "../../../huffman.srcs/sim_1/new/huffman_decoder_tb.v" --include "../../../huffman.srcs/sources_1/bd/Huffman_bd/ipshared/7dd0/hdl" --include "../../../huffman.srcs/sources_1/bd/Huffman_bd/ipshared/7e3a/hdl"

# compile glbl module
verilog xil_defaultlib "glbl.v"

# Do not sort compile order
nosort
