#-----------------------------------------------------------
# Webtalk v2016.4 (64-bit)
# SW Build 1756540 on Mon Jan 23 19:11:23 MST 2017
# IP Build 1755317 on Mon Jan 23 20:30:07 MST 2017
# Start of session at: Fri May 24 08:41:39 2019
# Process ID: 11948
# Current directory: E:/Studia/4rok/8_semestr/sdup/odchudzanie_projektu/kodek/sdup_project_final/huffman.sim/sim_1/behav
# Command line: wbtcv.exe -mode batch -source E:/Studia/4rok/8_semestr/sdup/odchudzanie_projektu/kodek/sdup_project_final/huffman.sim/sim_1/behav/xsim.dir/huffman_codec_tb_behav/webtalk/xsim_webtalk.tcl -notrace
# Log file: E:/Studia/4rok/8_semestr/sdup/odchudzanie_projektu/kodek/sdup_project_final/huffman.sim/sim_1/behav/webtalk.log
# Journal file: E:/Studia/4rok/8_semestr/sdup/odchudzanie_projektu/kodek/sdup_project_final/huffman.sim/sim_1/behav\webtalk.jou
#-----------------------------------------------------------
source E:/Studia/4rok/8_semestr/sdup/odchudzanie_projektu/kodek/sdup_project_final/huffman.sim/sim_1/behav/xsim.dir/huffman_codec_tb_behav/webtalk/xsim_webtalk.tcl -notrace
INFO: [Common 17-186] 'E:/Studia/4rok/8_semestr/sdup/odchudzanie_projektu/kodek/sdup_project_final/huffman.sim/sim_1/behav/xsim.dir/huffman_codec_tb_behav/webtalk/usage_statistics_ext_xsim.xml' has been successfully sent to Xilinx on Fri May 24 08:41:42 2019. For additional details about this file, please refer to the WebTalk help file at C:/Xilinx/Vivado/2016.4/doc/webtalk_introduction.html.
INFO: [Common 17-206] Exiting Webtalk at Fri May 24 08:41:42 2019...
