Copyright 1986-2016 Xilinx, Inc. All Rights Reserved.
---------------------------------------------------------------------------------------------------------------------------------
| Tool Version : Vivado v.2016.4 (win64) Build 1756540 Mon Jan 23 19:11:23 MST 2017
| Date         : Mon May 20 16:34:02 2019
| Host         : DESKTOP-EBL4SFR running 64-bit major release  (build 9200)
| Command      : report_utilization -file Huffman_bd_wrapper_utilization_placed.rpt -pb Huffman_bd_wrapper_utilization_placed.pb
| Design       : Huffman_bd_wrapper
| Device       : 7z020clg484-1
| Design State : Fully Placed
---------------------------------------------------------------------------------------------------------------------------------

Utilization Design Information

Table of Contents
-----------------
1. Slice Logic
1.1 Summary of Registers by Type
2. Slice Logic Distribution
3. Memory
4. DSP
5. IO and GT Specific
6. Clocking
7. Specific Feature
8. Primitives
9. Black Boxes
10. Instantiated Netlists

1. Slice Logic
--------------

+----------------------------+-------+-------+-----------+-------+
|          Site Type         |  Used | Fixed | Available | Util% |
+----------------------------+-------+-------+-----------+-------+
| Slice LUTs                 | 41887 |     0 |     53200 | 78.73 |
|   LUT as Logic             | 41667 |     0 |     53200 | 78.32 |
|   LUT as Memory            |   220 |     0 |     17400 |  1.26 |
|     LUT as Distributed RAM |   158 |     0 |           |       |
|     LUT as Shift Register  |    62 |     0 |           |       |
| Slice Registers            | 12198 |     0 |    106400 | 11.46 |
|   Register as Flip Flop    | 12198 |     0 |    106400 | 11.46 |
|   Register as Latch        |     0 |     0 |    106400 |  0.00 |
| F7 Muxes                   |  4894 |     0 |     26600 | 18.40 |
| F8 Muxes                   |  2203 |     0 |     13300 | 16.56 |
+----------------------------+-------+-------+-----------+-------+


1.1 Summary of Registers by Type
--------------------------------

+-------+--------------+-------------+--------------+
| Total | Clock Enable | Synchronous | Asynchronous |
+-------+--------------+-------------+--------------+
| 0     |            _ |           - |            - |
| 0     |            _ |           - |          Set |
| 0     |            _ |           - |        Reset |
| 0     |            _ |         Set |            - |
| 0     |            _ |       Reset |            - |
| 0     |          Yes |           - |            - |
| 0     |          Yes |           - |          Set |
| 0     |          Yes |           - |        Reset |
| 54    |          Yes |         Set |            - |
| 12144 |          Yes |       Reset |            - |
+-------+--------------+-------------+--------------+


2. Slice Logic Distribution
---------------------------

+-------------------------------------------+-------+-------+-----------+-------+
|                 Site Type                 |  Used | Fixed | Available | Util% |
+-------------------------------------------+-------+-------+-----------+-------+
| Slice                                     | 11345 |     0 |     13300 | 85.30 |
|   SLICEL                                  |  7743 |     0 |           |       |
|   SLICEM                                  |  3602 |     0 |           |       |
| LUT as Logic                              | 41667 |     0 |     53200 | 78.32 |
|   using O5 output only                    |     1 |       |           |       |
|   using O6 output only                    | 40109 |       |           |       |
|   using O5 and O6                         |  1557 |       |           |       |
| LUT as Memory                             |   220 |     0 |     17400 |  1.26 |
|   LUT as Distributed RAM                  |   158 |     0 |           |       |
|     using O5 output only                  |     0 |       |           |       |
|     using O6 output only                  |   134 |       |           |       |
|     using O5 and O6                       |    24 |       |           |       |
|   LUT as Shift Register                   |    62 |     0 |           |       |
|     using O5 output only                  |     0 |       |           |       |
|     using O6 output only                  |    58 |       |           |       |
|     using O5 and O6                       |     4 |       |           |       |
| LUT Flip Flop Pairs                       | 10066 |     0 |     53200 | 18.92 |
|   fully used LUT-FF pairs                 |    99 |       |           |       |
|   LUT-FF pairs with one unused LUT output |  9938 |       |           |       |
|   LUT-FF pairs with one unused Flip Flop  |  9941 |       |           |       |
| Unique Control Sets                       |   196 |       |           |       |
+-------------------------------------------+-------+-------+-----------+-------+
* Note: Review the Control Sets Report for more information regarding control sets.


3. Memory
---------

+-------------------+------+-------+-----------+-------+
|     Site Type     | Used | Fixed | Available | Util% |
+-------------------+------+-------+-----------+-------+
| Block RAM Tile    |    6 |     0 |       140 |  4.29 |
|   RAMB36/FIFO*    |    0 |     0 |       140 |  0.00 |
|   RAMB18          |   12 |     0 |       280 |  4.29 |
|     RAMB18E1 only |   12 |       |           |       |
+-------------------+------+-------+-----------+-------+
* Note: Each Block RAM Tile only has one FIFO logic available and therefore can accommodate only one FIFO36E1 or one FIFO18E1. However, if a FIFO18E1 occupies a Block RAM Tile, that tile can still accommodate a RAMB18E1


4. DSP
------

+-----------+------+-------+-----------+-------+
| Site Type | Used | Fixed | Available | Util% |
+-----------+------+-------+-----------+-------+
| DSPs      |    0 |     0 |       220 |  0.00 |
+-----------+------+-------+-----------+-------+


5. IO and GT Specific
---------------------

+-----------------------------+------+-------+-----------+--------+
|          Site Type          | Used | Fixed | Available |  Util% |
+-----------------------------+------+-------+-----------+--------+
| Bonded IOB                  |    0 |     0 |       200 |   0.00 |
| Bonded IPADs                |    0 |     0 |         2 |   0.00 |
| Bonded IOPADs               |  130 |   130 |       130 | 100.00 |
| PHY_CONTROL                 |    0 |     0 |         4 |   0.00 |
| PHASER_REF                  |    0 |     0 |         4 |   0.00 |
| OUT_FIFO                    |    0 |     0 |        16 |   0.00 |
| IN_FIFO                     |    0 |     0 |        16 |   0.00 |
| IDELAYCTRL                  |    0 |     0 |         4 |   0.00 |
| IBUFDS                      |    0 |     0 |       192 |   0.00 |
| PHASER_OUT/PHASER_OUT_PHY   |    0 |     0 |        16 |   0.00 |
| PHASER_IN/PHASER_IN_PHY     |    0 |     0 |        16 |   0.00 |
| IDELAYE2/IDELAYE2_FINEDELAY |    0 |     0 |       200 |   0.00 |
| ILOGIC                      |    0 |     0 |       200 |   0.00 |
| OLOGIC                      |    0 |     0 |       200 |   0.00 |
+-----------------------------+------+-------+-----------+--------+


6. Clocking
-----------

+------------+------+-------+-----------+-------+
|  Site Type | Used | Fixed | Available | Util% |
+------------+------+-------+-----------+-------+
| BUFGCTRL   |    1 |     0 |        32 |  3.13 |
| BUFIO      |    0 |     0 |        16 |  0.00 |
| MMCME2_ADV |    0 |     0 |         4 |  0.00 |
| PLLE2_ADV  |    0 |     0 |         4 |  0.00 |
| BUFMRCE    |    0 |     0 |         8 |  0.00 |
| BUFHCE     |    0 |     0 |        72 |  0.00 |
| BUFR       |    0 |     0 |        16 |  0.00 |
+------------+------+-------+-----------+-------+


7. Specific Feature
-------------------

+-------------+------+-------+-----------+-------+
|  Site Type  | Used | Fixed | Available | Util% |
+-------------+------+-------+-----------+-------+
| BSCANE2     |    0 |     0 |         4 |  0.00 |
| CAPTUREE2   |    0 |     0 |         1 |  0.00 |
| DNA_PORT    |    0 |     0 |         1 |  0.00 |
| EFUSE_USR   |    0 |     0 |         1 |  0.00 |
| FRAME_ECCE2 |    0 |     0 |         1 |  0.00 |
| ICAPE2      |    0 |     0 |         2 |  0.00 |
| STARTUPE2   |    0 |     0 |         1 |  0.00 |
| XADC        |    0 |     0 |         1 |  0.00 |
+-------------+------+-------+-----------+-------+


8. Primitives
-------------

+----------+-------+----------------------+
| Ref Name |  Used |  Functional Category |
+----------+-------+----------------------+
| LUT6     | 23615 |                  LUT |
| LUT5     | 13087 |                  LUT |
| FDRE     | 12144 |         Flop & Latch |
| MUXF7    |  4894 |                MuxFx |
| LUT4     |  3478 |                  LUT |
| MUXF8    |  2203 |                MuxFx |
| LUT3     |  1804 |                  LUT |
| LUT2     |  1087 |                  LUT |
| CARRY4   |   381 |           CarryLogic |
| LUT1     |   153 |                  LUT |
| BIBUF    |   130 |                   IO |
| RAMD64E  |    82 |   Distributed Memory |
| FDSE     |    54 |         Flop & Latch |
| RAMD32   |    52 |   Distributed Memory |
| RAMS32   |    48 |   Distributed Memory |
| SRLC32E  |    47 |   Distributed Memory |
| SRL16E   |    19 |   Distributed Memory |
| RAMB18E1 |    12 |         Block Memory |
| PS7      |     1 | Specialized Resource |
| BUFG     |     1 |                Clock |
+----------+-------+----------------------+


9. Black Boxes
--------------

+----------+------+
| Ref Name | Used |
+----------+------+


10. Instantiated Netlists
-------------------------

+-----------------------------------+------+
|              Ref Name             | Used |
+-----------------------------------+------+
| Huffman_bd_rst_ps7_0_100M_0       |    1 |
| Huffman_bd_processing_system7_0_0 |    1 |
| Huffman_bd_huffman_codec_ip_0_0   |    1 |
| Huffman_bd_auto_pc_0              |    1 |
+-----------------------------------+------+


