
*** Running vivado
    with args -log Huffman_bd_auto_pc_0.vds -m64 -product Vivado -mode batch -messageDb vivado.pb -notrace -source Huffman_bd_auto_pc_0.tcl


****** Vivado v2016.4 (64-bit)
  **** SW Build 1756540 on Mon Jan 23 19:11:23 MST 2017
  **** IP Build 1755317 on Mon Jan 23 20:30:07 MST 2017
    ** Copyright 1986-2016 Xilinx, Inc. All Rights Reserved.

source Huffman_bd_auto_pc_0.tcl -notrace
Starting RTL Elaboration : Time (s): cpu = 00:00:08 ; elapsed = 00:00:10 . Memory (MB): peak = 301.230 ; gain = 90.840
INFO: [Synth 8-638] synthesizing module 'Huffman_bd_auto_pc_0' [e:/Studia/4rok/8_semestr/sdup/najnowsza_wersja_repo/sdup_project_final/huffman.srcs/sources_1/bd/Huffman_bd/ip/Huffman_bd_auto_pc_0/synth/Huffman_bd_auto_pc_0.v:58]
INFO: [Synth 8-638] synthesizing module 'axi_protocol_converter_v2_1_11_axi_protocol_converter' [e:/Studia/4rok/8_semestr/sdup/najnowsza_wersja_repo/sdup_project_final/huffman.srcs/sources_1/bd/Huffman_bd/ipshared/df1b/hdl/axi_protocol_converter_v2_1_vl_rfs.v:4806]
INFO: [Synth 8-638] synthesizing module 'axi_protocol_converter_v2_1_11_b2s' [e:/Studia/4rok/8_semestr/sdup/najnowsza_wersja_repo/sdup_project_final/huffman.srcs/sources_1/bd/Huffman_bd/ipshared/df1b/hdl/axi_protocol_converter_v2_1_vl_rfs.v:4224]
INFO: [Synth 8-638] synthesizing module 'axi_protocol_converter_v2_1_11_b2s_aw_channel' [e:/Studia/4rok/8_semestr/sdup/najnowsza_wersja_repo/sdup_project_final/huffman.srcs/sources_1/bd/Huffman_bd/ipshared/df1b/hdl/axi_protocol_converter_v2_1_vl_rfs.v:3969]
INFO: [Synth 8-638] synthesizing module 'axi_protocol_converter_v2_1_11_b2s_cmd_translator' [e:/Studia/4rok/8_semestr/sdup/najnowsza_wersja_repo/sdup_project_final/huffman.srcs/sources_1/bd/Huffman_bd/ipshared/df1b/hdl/axi_protocol_converter_v2_1_vl_rfs.v:3467]
INFO: [Synth 8-638] synthesizing module 'axi_protocol_converter_v2_1_11_b2s_incr_cmd' [e:/Studia/4rok/8_semestr/sdup/najnowsza_wersja_repo/sdup_project_final/huffman.srcs/sources_1/bd/Huffman_bd/ipshared/df1b/hdl/axi_protocol_converter_v2_1_vl_rfs.v:3093]
INFO: [Synth 8-256] done synthesizing module 'axi_protocol_converter_v2_1_11_b2s_incr_cmd' (1#1) [e:/Studia/4rok/8_semestr/sdup/najnowsza_wersja_repo/sdup_project_final/huffman.srcs/sources_1/bd/Huffman_bd/ipshared/df1b/hdl/axi_protocol_converter_v2_1_vl_rfs.v:3093]
INFO: [Synth 8-638] synthesizing module 'axi_protocol_converter_v2_1_11_b2s_wrap_cmd' [e:/Studia/4rok/8_semestr/sdup/najnowsza_wersja_repo/sdup_project_final/huffman.srcs/sources_1/bd/Huffman_bd/ipshared/df1b/hdl/axi_protocol_converter_v2_1_vl_rfs.v:2903]
INFO: [Synth 8-256] done synthesizing module 'axi_protocol_converter_v2_1_11_b2s_wrap_cmd' (2#1) [e:/Studia/4rok/8_semestr/sdup/najnowsza_wersja_repo/sdup_project_final/huffman.srcs/sources_1/bd/Huffman_bd/ipshared/df1b/hdl/axi_protocol_converter_v2_1_vl_rfs.v:2903]
INFO: [Synth 8-256] done synthesizing module 'axi_protocol_converter_v2_1_11_b2s_cmd_translator' (3#1) [e:/Studia/4rok/8_semestr/sdup/najnowsza_wersja_repo/sdup_project_final/huffman.srcs/sources_1/bd/Huffman_bd/ipshared/df1b/hdl/axi_protocol_converter_v2_1_vl_rfs.v:3467]
INFO: [Synth 8-638] synthesizing module 'axi_protocol_converter_v2_1_11_b2s_wr_cmd_fsm' [e:/Studia/4rok/8_semestr/sdup/najnowsza_wersja_repo/sdup_project_final/huffman.srcs/sources_1/bd/Huffman_bd/ipshared/df1b/hdl/axi_protocol_converter_v2_1_vl_rfs.v:3225]
INFO: [Synth 8-256] done synthesizing module 'axi_protocol_converter_v2_1_11_b2s_wr_cmd_fsm' (4#1) [e:/Studia/4rok/8_semestr/sdup/najnowsza_wersja_repo/sdup_project_final/huffman.srcs/sources_1/bd/Huffman_bd/ipshared/df1b/hdl/axi_protocol_converter_v2_1_vl_rfs.v:3225]
INFO: [Synth 8-256] done synthesizing module 'axi_protocol_converter_v2_1_11_b2s_aw_channel' (5#1) [e:/Studia/4rok/8_semestr/sdup/najnowsza_wersja_repo/sdup_project_final/huffman.srcs/sources_1/bd/Huffman_bd/ipshared/df1b/hdl/axi_protocol_converter_v2_1_vl_rfs.v:3969]
INFO: [Synth 8-638] synthesizing module 'axi_protocol_converter_v2_1_11_b2s_b_channel' [e:/Studia/4rok/8_semestr/sdup/najnowsza_wersja_repo/sdup_project_final/huffman.srcs/sources_1/bd/Huffman_bd/ipshared/df1b/hdl/axi_protocol_converter_v2_1_vl_rfs.v:3609]
INFO: [Synth 8-638] synthesizing module 'axi_protocol_converter_v2_1_11_b2s_simple_fifo' [e:/Studia/4rok/8_semestr/sdup/najnowsza_wersja_repo/sdup_project_final/huffman.srcs/sources_1/bd/Huffman_bd/ipshared/df1b/hdl/axi_protocol_converter_v2_1_vl_rfs.v:2816]
INFO: [Synth 8-256] done synthesizing module 'axi_protocol_converter_v2_1_11_b2s_simple_fifo' (6#1) [e:/Studia/4rok/8_semestr/sdup/najnowsza_wersja_repo/sdup_project_final/huffman.srcs/sources_1/bd/Huffman_bd/ipshared/df1b/hdl/axi_protocol_converter_v2_1_vl_rfs.v:2816]
INFO: [Synth 8-638] synthesizing module 'axi_protocol_converter_v2_1_11_b2s_simple_fifo__parameterized0' [e:/Studia/4rok/8_semestr/sdup/najnowsza_wersja_repo/sdup_project_final/huffman.srcs/sources_1/bd/Huffman_bd/ipshared/df1b/hdl/axi_protocol_converter_v2_1_vl_rfs.v:2816]
INFO: [Synth 8-256] done synthesizing module 'axi_protocol_converter_v2_1_11_b2s_simple_fifo__parameterized0' (6#1) [e:/Studia/4rok/8_semestr/sdup/najnowsza_wersja_repo/sdup_project_final/huffman.srcs/sources_1/bd/Huffman_bd/ipshared/df1b/hdl/axi_protocol_converter_v2_1_vl_rfs.v:2816]
INFO: [Synth 8-256] done synthesizing module 'axi_protocol_converter_v2_1_11_b2s_b_channel' (7#1) [e:/Studia/4rok/8_semestr/sdup/najnowsza_wersja_repo/sdup_project_final/huffman.srcs/sources_1/bd/Huffman_bd/ipshared/df1b/hdl/axi_protocol_converter_v2_1_vl_rfs.v:3609]
INFO: [Synth 8-638] synthesizing module 'axi_protocol_converter_v2_1_11_b2s_ar_channel' [e:/Studia/4rok/8_semestr/sdup/najnowsza_wersja_repo/sdup_project_final/huffman.srcs/sources_1/bd/Huffman_bd/ipshared/df1b/hdl/axi_protocol_converter_v2_1_vl_rfs.v:4080]
INFO: [Synth 8-638] synthesizing module 'axi_protocol_converter_v2_1_11_b2s_rd_cmd_fsm' [e:/Studia/4rok/8_semestr/sdup/najnowsza_wersja_repo/sdup_project_final/huffman.srcs/sources_1/bd/Huffman_bd/ipshared/df1b/hdl/axi_protocol_converter_v2_1_vl_rfs.v:3336]
INFO: [Synth 8-256] done synthesizing module 'axi_protocol_converter_v2_1_11_b2s_rd_cmd_fsm' (8#1) [e:/Studia/4rok/8_semestr/sdup/najnowsza_wersja_repo/sdup_project_final/huffman.srcs/sources_1/bd/Huffman_bd/ipshared/df1b/hdl/axi_protocol_converter_v2_1_vl_rfs.v:3336]
INFO: [Synth 8-256] done synthesizing module 'axi_protocol_converter_v2_1_11_b2s_ar_channel' (9#1) [e:/Studia/4rok/8_semestr/sdup/najnowsza_wersja_repo/sdup_project_final/huffman.srcs/sources_1/bd/Huffman_bd/ipshared/df1b/hdl/axi_protocol_converter_v2_1_vl_rfs.v:4080]
INFO: [Synth 8-638] synthesizing module 'axi_protocol_converter_v2_1_11_b2s_r_channel' [e:/Studia/4rok/8_semestr/sdup/najnowsza_wersja_repo/sdup_project_final/huffman.srcs/sources_1/bd/Huffman_bd/ipshared/df1b/hdl/axi_protocol_converter_v2_1_vl_rfs.v:3809]
INFO: [Synth 8-638] synthesizing module 'axi_protocol_converter_v2_1_11_b2s_simple_fifo__parameterized1' [e:/Studia/4rok/8_semestr/sdup/najnowsza_wersja_repo/sdup_project_final/huffman.srcs/sources_1/bd/Huffman_bd/ipshared/df1b/hdl/axi_protocol_converter_v2_1_vl_rfs.v:2816]
INFO: [Synth 8-256] done synthesizing module 'axi_protocol_converter_v2_1_11_b2s_simple_fifo__parameterized1' (9#1) [e:/Studia/4rok/8_semestr/sdup/najnowsza_wersja_repo/sdup_project_final/huffman.srcs/sources_1/bd/Huffman_bd/ipshared/df1b/hdl/axi_protocol_converter_v2_1_vl_rfs.v:2816]
INFO: [Synth 8-638] synthesizing module 'axi_protocol_converter_v2_1_11_b2s_simple_fifo__parameterized2' [e:/Studia/4rok/8_semestr/sdup/najnowsza_wersja_repo/sdup_project_final/huffman.srcs/sources_1/bd/Huffman_bd/ipshared/df1b/hdl/axi_protocol_converter_v2_1_vl_rfs.v:2816]
INFO: [Synth 8-256] done synthesizing module 'axi_protocol_converter_v2_1_11_b2s_simple_fifo__parameterized2' (9#1) [e:/Studia/4rok/8_semestr/sdup/najnowsza_wersja_repo/sdup_project_final/huffman.srcs/sources_1/bd/Huffman_bd/ipshared/df1b/hdl/axi_protocol_converter_v2_1_vl_rfs.v:2816]
INFO: [Synth 8-256] done synthesizing module 'axi_protocol_converter_v2_1_11_b2s_r_channel' (10#1) [e:/Studia/4rok/8_semestr/sdup/najnowsza_wersja_repo/sdup_project_final/huffman.srcs/sources_1/bd/Huffman_bd/ipshared/df1b/hdl/axi_protocol_converter_v2_1_vl_rfs.v:3809]
INFO: [Synth 8-638] synthesizing module 'axi_register_slice_v2_1_11_axi_register_slice' [e:/Studia/4rok/8_semestr/sdup/najnowsza_wersja_repo/sdup_project_final/huffman.srcs/sources_1/bd/Huffman_bd/ipshared/0b6b/hdl/axi_register_slice_v2_1_vl_rfs.v:791]
INFO: [Synth 8-638] synthesizing module 'axi_infrastructure_v1_1_0_axi2vector' [e:/Studia/4rok/8_semestr/sdup/najnowsza_wersja_repo/sdup_project_final/huffman.srcs/sources_1/bd/Huffman_bd/ipshared/7e3a/hdl/axi_infrastructure_v1_1_vl_rfs.v:60]
INFO: [Synth 8-256] done synthesizing module 'axi_infrastructure_v1_1_0_axi2vector' (11#1) [e:/Studia/4rok/8_semestr/sdup/najnowsza_wersja_repo/sdup_project_final/huffman.srcs/sources_1/bd/Huffman_bd/ipshared/7e3a/hdl/axi_infrastructure_v1_1_vl_rfs.v:60]
INFO: [Synth 8-638] synthesizing module 'axi_register_slice_v2_1_11_axic_register_slice' [e:/Studia/4rok/8_semestr/sdup/najnowsza_wersja_repo/sdup_project_final/huffman.srcs/sources_1/bd/Huffman_bd/ipshared/0b6b/hdl/axi_register_slice_v2_1_vl_rfs.v:85]
INFO: [Synth 8-256] done synthesizing module 'axi_register_slice_v2_1_11_axic_register_slice' (12#1) [e:/Studia/4rok/8_semestr/sdup/najnowsza_wersja_repo/sdup_project_final/huffman.srcs/sources_1/bd/Huffman_bd/ipshared/0b6b/hdl/axi_register_slice_v2_1_vl_rfs.v:85]
INFO: [Synth 8-638] synthesizing module 'axi_register_slice_v2_1_11_axic_register_slice__parameterized0' [e:/Studia/4rok/8_semestr/sdup/najnowsza_wersja_repo/sdup_project_final/huffman.srcs/sources_1/bd/Huffman_bd/ipshared/0b6b/hdl/axi_register_slice_v2_1_vl_rfs.v:85]
INFO: [Synth 8-256] done synthesizing module 'axi_register_slice_v2_1_11_axic_register_slice__parameterized0' (12#1) [e:/Studia/4rok/8_semestr/sdup/najnowsza_wersja_repo/sdup_project_final/huffman.srcs/sources_1/bd/Huffman_bd/ipshared/0b6b/hdl/axi_register_slice_v2_1_vl_rfs.v:85]
INFO: [Synth 8-638] synthesizing module 'axi_register_slice_v2_1_11_axic_register_slice__parameterized1' [e:/Studia/4rok/8_semestr/sdup/najnowsza_wersja_repo/sdup_project_final/huffman.srcs/sources_1/bd/Huffman_bd/ipshared/0b6b/hdl/axi_register_slice_v2_1_vl_rfs.v:85]
INFO: [Synth 8-256] done synthesizing module 'axi_register_slice_v2_1_11_axic_register_slice__parameterized1' (12#1) [e:/Studia/4rok/8_semestr/sdup/najnowsza_wersja_repo/sdup_project_final/huffman.srcs/sources_1/bd/Huffman_bd/ipshared/0b6b/hdl/axi_register_slice_v2_1_vl_rfs.v:85]
INFO: [Synth 8-638] synthesizing module 'axi_register_slice_v2_1_11_axic_register_slice__parameterized2' [e:/Studia/4rok/8_semestr/sdup/najnowsza_wersja_repo/sdup_project_final/huffman.srcs/sources_1/bd/Huffman_bd/ipshared/0b6b/hdl/axi_register_slice_v2_1_vl_rfs.v:85]
INFO: [Synth 8-256] done synthesizing module 'axi_register_slice_v2_1_11_axic_register_slice__parameterized2' (12#1) [e:/Studia/4rok/8_semestr/sdup/najnowsza_wersja_repo/sdup_project_final/huffman.srcs/sources_1/bd/Huffman_bd/ipshared/0b6b/hdl/axi_register_slice_v2_1_vl_rfs.v:85]
INFO: [Synth 8-638] synthesizing module 'axi_infrastructure_v1_1_0_vector2axi' [e:/Studia/4rok/8_semestr/sdup/najnowsza_wersja_repo/sdup_project_final/huffman.srcs/sources_1/bd/Huffman_bd/ipshared/7e3a/hdl/axi_infrastructure_v1_1_vl_rfs.v:474]
INFO: [Synth 8-256] done synthesizing module 'axi_infrastructure_v1_1_0_vector2axi' (13#1) [e:/Studia/4rok/8_semestr/sdup/najnowsza_wersja_repo/sdup_project_final/huffman.srcs/sources_1/bd/Huffman_bd/ipshared/7e3a/hdl/axi_infrastructure_v1_1_vl_rfs.v:474]
INFO: [Synth 8-256] done synthesizing module 'axi_register_slice_v2_1_11_axi_register_slice' (14#1) [e:/Studia/4rok/8_semestr/sdup/najnowsza_wersja_repo/sdup_project_final/huffman.srcs/sources_1/bd/Huffman_bd/ipshared/0b6b/hdl/axi_register_slice_v2_1_vl_rfs.v:791]
INFO: [Synth 8-638] synthesizing module 'axi_register_slice_v2_1_11_axi_register_slice__parameterized0' [e:/Studia/4rok/8_semestr/sdup/najnowsza_wersja_repo/sdup_project_final/huffman.srcs/sources_1/bd/Huffman_bd/ipshared/0b6b/hdl/axi_register_slice_v2_1_vl_rfs.v:791]
INFO: [Synth 8-638] synthesizing module 'axi_infrastructure_v1_1_0_axi2vector__parameterized0' [e:/Studia/4rok/8_semestr/sdup/najnowsza_wersja_repo/sdup_project_final/huffman.srcs/sources_1/bd/Huffman_bd/ipshared/7e3a/hdl/axi_infrastructure_v1_1_vl_rfs.v:60]
INFO: [Synth 8-256] done synthesizing module 'axi_infrastructure_v1_1_0_axi2vector__parameterized0' (14#1) [e:/Studia/4rok/8_semestr/sdup/najnowsza_wersja_repo/sdup_project_final/huffman.srcs/sources_1/bd/Huffman_bd/ipshared/7e3a/hdl/axi_infrastructure_v1_1_vl_rfs.v:60]
INFO: [Synth 8-638] synthesizing module 'axi_register_slice_v2_1_11_axic_register_slice__parameterized3' [e:/Studia/4rok/8_semestr/sdup/najnowsza_wersja_repo/sdup_project_final/huffman.srcs/sources_1/bd/Huffman_bd/ipshared/0b6b/hdl/axi_register_slice_v2_1_vl_rfs.v:85]
INFO: [Synth 8-256] done synthesizing module 'axi_register_slice_v2_1_11_axic_register_slice__parameterized3' (14#1) [e:/Studia/4rok/8_semestr/sdup/najnowsza_wersja_repo/sdup_project_final/huffman.srcs/sources_1/bd/Huffman_bd/ipshared/0b6b/hdl/axi_register_slice_v2_1_vl_rfs.v:85]
INFO: [Synth 8-638] synthesizing module 'axi_register_slice_v2_1_11_axic_register_slice__parameterized4' [e:/Studia/4rok/8_semestr/sdup/najnowsza_wersja_repo/sdup_project_final/huffman.srcs/sources_1/bd/Huffman_bd/ipshared/0b6b/hdl/axi_register_slice_v2_1_vl_rfs.v:85]
INFO: [Synth 8-256] done synthesizing module 'axi_register_slice_v2_1_11_axic_register_slice__parameterized4' (14#1) [e:/Studia/4rok/8_semestr/sdup/najnowsza_wersja_repo/sdup_project_final/huffman.srcs/sources_1/bd/Huffman_bd/ipshared/0b6b/hdl/axi_register_slice_v2_1_vl_rfs.v:85]
INFO: [Synth 8-638] synthesizing module 'axi_register_slice_v2_1_11_axic_register_slice__parameterized5' [e:/Studia/4rok/8_semestr/sdup/najnowsza_wersja_repo/sdup_project_final/huffman.srcs/sources_1/bd/Huffman_bd/ipshared/0b6b/hdl/axi_register_slice_v2_1_vl_rfs.v:85]
INFO: [Synth 8-256] done synthesizing module 'axi_register_slice_v2_1_11_axic_register_slice__parameterized5' (14#1) [e:/Studia/4rok/8_semestr/sdup/najnowsza_wersja_repo/sdup_project_final/huffman.srcs/sources_1/bd/Huffman_bd/ipshared/0b6b/hdl/axi_register_slice_v2_1_vl_rfs.v:85]
INFO: [Synth 8-638] synthesizing module 'axi_register_slice_v2_1_11_axic_register_slice__parameterized6' [e:/Studia/4rok/8_semestr/sdup/najnowsza_wersja_repo/sdup_project_final/huffman.srcs/sources_1/bd/Huffman_bd/ipshared/0b6b/hdl/axi_register_slice_v2_1_vl_rfs.v:85]
INFO: [Synth 8-256] done synthesizing module 'axi_register_slice_v2_1_11_axic_register_slice__parameterized6' (14#1) [e:/Studia/4rok/8_semestr/sdup/najnowsza_wersja_repo/sdup_project_final/huffman.srcs/sources_1/bd/Huffman_bd/ipshared/0b6b/hdl/axi_register_slice_v2_1_vl_rfs.v:85]
INFO: [Synth 8-638] synthesizing module 'axi_register_slice_v2_1_11_axic_register_slice__parameterized7' [e:/Studia/4rok/8_semestr/sdup/najnowsza_wersja_repo/sdup_project_final/huffman.srcs/sources_1/bd/Huffman_bd/ipshared/0b6b/hdl/axi_register_slice_v2_1_vl_rfs.v:85]
INFO: [Synth 8-256] done synthesizing module 'axi_register_slice_v2_1_11_axic_register_slice__parameterized7' (14#1) [e:/Studia/4rok/8_semestr/sdup/najnowsza_wersja_repo/sdup_project_final/huffman.srcs/sources_1/bd/Huffman_bd/ipshared/0b6b/hdl/axi_register_slice_v2_1_vl_rfs.v:85]
INFO: [Synth 8-638] synthesizing module 'axi_infrastructure_v1_1_0_vector2axi__parameterized0' [e:/Studia/4rok/8_semestr/sdup/najnowsza_wersja_repo/sdup_project_final/huffman.srcs/sources_1/bd/Huffman_bd/ipshared/7e3a/hdl/axi_infrastructure_v1_1_vl_rfs.v:474]
INFO: [Synth 8-256] done synthesizing module 'axi_infrastructure_v1_1_0_vector2axi__parameterized0' (14#1) [e:/Studia/4rok/8_semestr/sdup/najnowsza_wersja_repo/sdup_project_final/huffman.srcs/sources_1/bd/Huffman_bd/ipshared/7e3a/hdl/axi_infrastructure_v1_1_vl_rfs.v:474]
INFO: [Synth 8-256] done synthesizing module 'axi_register_slice_v2_1_11_axi_register_slice__parameterized0' (14#1) [e:/Studia/4rok/8_semestr/sdup/najnowsza_wersja_repo/sdup_project_final/huffman.srcs/sources_1/bd/Huffman_bd/ipshared/0b6b/hdl/axi_register_slice_v2_1_vl_rfs.v:791]
INFO: [Synth 8-256] done synthesizing module 'axi_protocol_converter_v2_1_11_b2s' (15#1) [e:/Studia/4rok/8_semestr/sdup/najnowsza_wersja_repo/sdup_project_final/huffman.srcs/sources_1/bd/Huffman_bd/ipshared/df1b/hdl/axi_protocol_converter_v2_1_vl_rfs.v:4224]
INFO: [Synth 8-256] done synthesizing module 'axi_protocol_converter_v2_1_11_axi_protocol_converter' (16#1) [e:/Studia/4rok/8_semestr/sdup/najnowsza_wersja_repo/sdup_project_final/huffman.srcs/sources_1/bd/Huffman_bd/ipshared/df1b/hdl/axi_protocol_converter_v2_1_vl_rfs.v:4806]
INFO: [Synth 8-256] done synthesizing module 'Huffman_bd_auto_pc_0' (17#1) [e:/Studia/4rok/8_semestr/sdup/najnowsza_wersja_repo/sdup_project_final/huffman.srcs/sources_1/bd/Huffman_bd/ip/Huffman_bd_auto_pc_0/synth/Huffman_bd_auto_pc_0.v:58]
Finished RTL Elaboration : Time (s): cpu = 00:00:37 ; elapsed = 00:00:40 . Memory (MB): peak = 417.531 ; gain = 207.141
Finished RTL Optimization Phase 1 : Time (s): cpu = 00:00:37 ; elapsed = 00:00:40 . Memory (MB): peak = 417.531 ; gain = 207.141
INFO: [Device 21-403] Loading part xc7z020clg484-1
Constraint Validation Runtime : Time (s): cpu = 00:00:00 ; elapsed = 00:00:00.066 . Memory (MB): peak = 667.883 ; gain = 0.160
Finished Constraint Validation : Time (s): cpu = 00:00:46 ; elapsed = 00:00:49 . Memory (MB): peak = 667.883 ; gain = 457.492
Finished Loading Part and Timing Information : Time (s): cpu = 00:00:46 ; elapsed = 00:00:49 . Memory (MB): peak = 667.883 ; gain = 457.492
Finished applying 'set_property' XDC Constraints : Time (s): cpu = 00:00:46 ; elapsed = 00:00:49 . Memory (MB): peak = 667.883 ; gain = 457.492
Finished RTL Optimization Phase 2 : Time (s): cpu = 00:00:46 ; elapsed = 00:00:49 . Memory (MB): peak = 667.883 ; gain = 457.492
Finished Cross Boundary and Area Optimization : Time (s): cpu = 00:00:48 ; elapsed = 00:00:51 . Memory (MB): peak = 667.883 ; gain = 457.492
Finished Applying XDC Timing Constraints : Time (s): cpu = 00:00:57 ; elapsed = 00:01:00 . Memory (MB): peak = 667.883 ; gain = 457.492
Finished Timing Optimization : Time (s): cpu = 00:00:58 ; elapsed = 00:01:01 . Memory (MB): peak = 673.785 ; gain = 463.395
Finished Technology Mapping : Time (s): cpu = 00:00:58 ; elapsed = 00:01:02 . Memory (MB): peak = 678.367 ; gain = 467.977
Finished IO Insertion : Time (s): cpu = 00:00:59 ; elapsed = 00:01:02 . Memory (MB): peak = 678.367 ; gain = 467.977
Finished Renaming Generated Instances : Time (s): cpu = 00:00:59 ; elapsed = 00:01:02 . Memory (MB): peak = 678.367 ; gain = 467.977
Finished Rebuilding User Hierarchy : Time (s): cpu = 00:00:59 ; elapsed = 00:01:02 . Memory (MB): peak = 678.367 ; gain = 467.977
Finished Renaming Generated Ports : Time (s): cpu = 00:00:59 ; elapsed = 00:01:02 . Memory (MB): peak = 678.367 ; gain = 467.977
Finished Handling Custom Attributes : Time (s): cpu = 00:00:59 ; elapsed = 00:01:02 . Memory (MB): peak = 678.367 ; gain = 467.977
Finished Renaming Generated Nets : Time (s): cpu = 00:00:59 ; elapsed = 00:01:02 . Memory (MB): peak = 678.367 ; gain = 467.977

Report Cell Usage: 
+------+--------+------+
|      |Cell    |Count |
+------+--------+------+
|1     |CARRY4  |    18|
|2     |LUT1    |    38|
|3     |LUT2    |    18|
|4     |LUT3    |   235|
|5     |LUT4    |    41|
|6     |LUT5    |    70|
|7     |LUT6    |   106|
|8     |SRL16E  |    18|
|9     |SRLC32E |    47|
|10    |FDRE    |   548|
|11    |FDSE    |    51|
+------+--------+------+
Finished Writing Synthesis Report : Time (s): cpu = 00:00:59 ; elapsed = 00:01:02 . Memory (MB): peak = 678.367 ; gain = 467.977
synth_design: Time (s): cpu = 00:00:58 ; elapsed = 00:01:00 . Memory (MB): peak = 686.531 ; gain = 469.258
